         run       event       nTopo   nIdTracks  nTauTracks       nTaus      nMuons       nElec   nTrueElec   nFakeElec       nPhot   nTruePhot   nFakePhot
      421739    11578317           5           0           0           0           0           0           0           0           0           0           0
      421739    11578318           5           0           0           0           0           0           0           0           0           0           0
      421739    11578335           7           0           0           0           1           0           0           0           0           0           0
      421739    11578339          11           0           0           0           2           0           0           0           0           0           0
      421739    11578344           4           0           0           0           1           0           0           0           0           0           0
      421739    11578356           7           0           0           0           1           0           0           0           0           0           0
      421739    11578357           6           0           0           0           2           0           0           0           0           0           0
      421739    11578373           6           0           0           0           0           0           0           0           0           0           0
      421739    11578384           9           0           0           0           1           0           0           0           0           0           0
      421739    11578404           6           0           0           0           1           0           0           0           0           0           0
      421739    11578410           7           0           0           0           0           0           0           0           0           0           0
      421739    11578414           6           0           0           0           0           0           0           0           0           0           0
      421739    11578431          10           0           0           0           0           0           0           0           0           0           0
      421739    11578434           4           0           0           0           0           0           0           0           0           0           0
      421739    11578435           8           0           0           0           0           0           0           0           0           0           0
      421739    11578456          12           0           0           0           0           0           0           0           0           0           0
      421739    11578468           3           0           0           0           0           0           0           0           0           0           0
      421739    11578474           6           0           0           0           0           0           0           0           0           0           0
      421739    11578480           5           0           0           0           1           0           0           0           0           0           0
      421739    11578482           4           0           0           0           0           0           0           0           0           0           0
      421739    11578505          10           0           0           0           2           0           0           0           0           0           0
      421739    11578520           7           0           0           0           2           0           0           0           0           0           0
      421739    11578532           1           0           0           0           0           0           0           0           0           0           0
      421739    11578533           4           0           0           0           0           0           0           0           0           0           0
      421739    11578542           6           0           0           0           1           0           0           0           0           0           0
